<svg width="269" height="36" viewBox="0 0 269 36" fill="none" xmlns="http://www.w3.org/2000/svg">
<path d="M261.222 23.2416C260.315 23.2416 259.554 23.4128 258.937 23.7422V23.5589C258.937 23.5589 258.626 23.2416 257.954 23.2416C257.281 23.2416 257.062 23.5589 257.062 23.5589V27.5881C257.062 27.5941 257.061 27.5991 257.061 27.6052V34.9817C257.061 34.9817 257.372 35.3 258.044 35.3C258.718 35.3 258.937 34.9817 258.937 34.9817V31.4682C259.554 31.7976 260.315 31.9688 261.221 31.9688C263.943 31.9688 265.382 30.4599 265.382 27.6052C265.382 24.7505 263.943 23.2416 261.222 23.2416ZM261.221 30.0026C259.535 30.0026 258.937 29.375 258.937 27.6052C258.937 25.8354 259.535 25.2078 261.222 25.2078C262.909 25.2078 263.507 25.8354 263.507 27.6052C263.507 29.3972 262.93 30.0026 261.221 30.0026Z" fill="white"/>
<path d="M255.053 28.9368C254.085 28.9368 253.743 29.2975 253.744 30.3128C253.744 31.3292 254.086 31.6888 255.053 31.6878C256.02 31.6888 256.363 31.3292 256.362 30.3128C256.362 29.2844 256.031 28.9368 255.053 28.9368Z" fill="white"/>
<path d="M268.665 29.9985H268.36C268.09 29.9985 267.956 29.8323 267.945 29.4576V19.7845C267.945 19.7845 267.745 19.5054 266.984 19.5054C266.223 19.5054 266.072 19.7845 266.072 19.7845V30.0146C266.072 31.4601 266.805 31.9638 267.726 31.9638C268.252 31.9638 268.828 31.7411 268.828 31.7411C268.828 31.7411 268.967 31.6203 268.967 30.9444C268.967 30.2695 268.665 29.9985 268.665 29.9985Z" fill="white"/>
<path d="M193.416 31.9487C189.705 31.9487 187.744 29.8918 187.744 26.0005C187.744 22.1073 189.705 20.0494 193.416 20.0494C197.125 20.0494 199.087 22.1063 199.087 26.0005C199.087 29.8918 197.125 31.9487 193.416 31.9487ZM193.416 22.7318C191.115 22.7318 190.3 23.587 190.3 26.0005C190.3 28.412 191.115 29.2672 193.416 29.2672C195.716 29.2672 196.53 28.412 196.53 26.0005C196.53 23.5558 195.744 22.7318 193.416 22.7318Z" fill="white"/>
<path d="M219.387 20.4866V26.0006C219.387 28.9459 218.911 29.2673 217.037 29.2673C215.162 29.2673 214.686 28.9459 214.686 26.0006V20.4866C214.686 20.4866 214.134 20.1622 213.362 20.1622C212.589 20.1622 212.129 20.4866 212.129 20.4866V26.0066C212.13 29.094 212.727 31.9487 217.037 31.9487C221.345 31.9487 221.942 29.094 221.943 26.0066V20.4866C221.943 20.4866 221.484 20.1622 220.686 20.1622C219.887 20.1622 219.387 20.4866 219.387 20.4866Z" fill="white"/>
<path d="M238.298 20.9399C238.298 20.9399 238.127 20.5249 237.249 20.2731C236.337 20.0122 235.73 20.4967 235.73 20.4967L233.545 26.888L231.708 21.5241L231.447 20.7666L231.363 20.4826H229.353L229.25 20.7666L228.991 21.5241L227.153 26.888L224.971 20.4967C224.971 20.4967 224.485 20.122 223.569 20.122C222.729 20.122 222.322 20.4967 222.322 20.4967L226.036 31.5015C226.036 31.5015 226.331 31.8581 227.143 31.8581C227.954 31.8581 228.327 31.5015 228.327 31.5015L230.349 25.4909L232.429 31.5015C232.429 31.5015 232.888 31.8581 233.537 31.8581C234.186 31.8581 234.692 31.5015 234.692 31.5015L238.298 20.9399Z" fill="white"/>
<path d="M205.56 20.0494C204.324 20.0494 203.286 20.2831 202.446 20.7324V15.9436C202.446 15.9436 202.146 15.5085 201.229 15.5085C200.313 15.5085 199.889 15.9436 199.889 15.9436V25.9996C199.889 29.8918 201.85 31.9487 205.561 31.9487C209.271 31.9487 211.232 29.8918 211.232 25.9996C211.232 22.1073 209.271 20.0494 205.56 20.0494ZM205.561 29.2662C203.26 29.2662 202.446 28.4121 202.446 25.9996C202.446 23.5871 203.26 22.7308 205.56 22.7308C207.89 22.7308 208.677 23.5548 208.677 25.9996C208.677 28.4121 207.861 29.2662 205.561 29.2662Z" fill="white"/>
<path d="M253.133 29.515C253.121 29.4959 252.764 28.966 252.083 28.6145C251.39 28.2589 250.837 28.3395 250.837 28.3395L250.834 28.3405C250.745 28.3506 250.67 28.3899 250.645 28.416C250.204 28.9036 249.347 29.2843 247.882 29.2843C245.859 29.2843 244.983 28.6215 244.798 26.8235H253.52C253.52 26.8235 253.564 26.2443 253.564 26.0106C253.564 22.1113 251.599 20.0504 247.881 20.0504C244.165 20.0504 242.2 22.1103 242.2 26.0106C242.2 29.9099 244.165 31.9708 247.882 31.9708C250.575 31.9708 252.18 30.7641 253.127 29.5241L253.133 29.515ZM244.907 24.6709C245.229 23.2718 246.118 22.7369 247.881 22.7369C249.673 22.7369 250.552 23.2556 250.864 24.6699L244.907 24.6709Z" fill="white"/>
<path d="M241.237 31.5296C241.237 31.5296 240.885 31.9618 240.006 31.9618C239.127 31.9618 238.681 31.5296 238.681 31.5296V20.4866C238.681 20.4866 238.887 20.1048 239.926 20.1048C240.964 20.1048 241.237 20.4866 241.237 20.4866V31.5296Z" fill="white"/>
<path d="M239.979 15.3C238.772 15.3 238.345 15.7493 238.345 17.0154C238.344 18.2826 238.772 18.7309 239.978 18.7299C241.185 18.7309 241.613 18.2826 241.613 17.0154C241.614 15.7331 241.2 15.299 239.979 15.3Z" fill="white"/>
<path d="M186.514 29.515C186.501 29.4959 186.145 28.966 185.463 28.6145C184.771 28.2589 184.218 28.3395 184.218 28.3395L184.215 28.3405C184.125 28.3506 184.051 28.3899 184.026 28.416C183.585 28.9036 182.727 29.2843 181.263 29.2843C179.239 29.2843 178.363 28.6215 178.179 26.8235H186.902C186.902 26.8235 186.944 26.2443 186.944 26.0106C186.944 22.1113 184.979 20.0504 181.263 20.0504C177.545 20.0504 175.58 22.1103 175.58 26.0106C175.58 29.9099 177.545 31.9708 181.263 31.9708C183.956 31.9708 185.56 30.7641 186.507 29.5241L186.514 29.515ZM178.287 24.6709C178.609 23.2718 179.498 22.7369 181.263 22.7369C183.054 22.7369 183.932 23.2556 184.244 24.6699L178.287 24.6709Z" fill="white"/>
<path d="M162.694 28.4729C162.694 27.3142 162.001 26.5278 160.956 26.5278C160.377 26.5278 159.711 26.8585 159.415 27.3003V29.6595C159.711 30.086 160.377 30.4042 160.956 30.4042C162.001 30.4042 162.694 29.6317 162.694 28.4729ZM164.546 28.4729C164.546 30.6945 163.246 31.9631 161.521 31.9631C160.716 31.9631 159.982 31.6185 159.429 30.9696V31.0391C159.429 31.5213 158.992 31.8936 158.526 31.8936C158.015 31.8936 157.62 31.4935 157.62 31.0114V23.3822C157.62 22.8987 158.015 22.5 158.526 22.5C159.005 22.5 159.415 22.8987 159.415 23.3822V25.9901C159.952 25.2996 160.716 24.9689 161.521 24.9689C163.259 24.9689 164.546 26.293 164.546 28.4729Z" fill="white"/>
<path d="M166.029 32.955C166.058 32.955 166.085 32.9411 166.114 32.9411C166.58 32.9272 166.876 32.8161 167.046 32.459L167.3 31.8921L164.954 26.2235C164.912 26.1276 164.897 26.0164 164.897 25.9067C164.897 25.4232 165.279 25.0369 165.774 25.0369C166.142 25.0369 166.481 25.2439 166.594 25.5746L168.233 29.8233L169.859 25.5746C169.986 25.2439 170.325 25.0369 170.693 25.0369C171.201 25.0369 171.582 25.4232 171.582 25.9067C171.582 26.0164 171.555 26.1415 171.513 26.2374L168.742 32.8856C168.233 34.1277 167.286 34.4875 166.269 34.5C166.213 34.5 166.142 34.5 166.071 34.4875C165.591 34.4722 165.265 34.1277 165.265 33.6997C165.265 33.2732 165.619 32.9689 166.029 32.955Z" fill="white"/>
<path d="M5.87011 18.8206H16.5364C16.4014 16.7931 14.9669 14.1038 11.2033 14.1038C7.66224 14.1038 6.13908 16.7041 5.87011 18.8206ZM11.2033 9.65274C17.6567 9.65274 22.0479 14.4119 22.0479 19.9662C22.0479 21.8169 20.838 22.611 18.6429 22.611H5.95977C6.31841 25.3002 8.51349 27.5469 12.1895 27.5469C13.622 27.5469 15.2369 27.1075 16.5818 26.3579C16.8941 26.1811 17.2527 26.0932 17.6567 26.0932C18.8666 26.0932 19.8971 27.1075 19.8971 28.2965C19.8971 29.135 19.3592 29.8391 18.6872 30.2362C16.5818 31.4262 14.0713 31.999 11.5609 31.999C4.97455 31.999 0 27.6358 0 20.8037C0 14.6332 4.61487 9.65274 11.2033 9.65274Z" fill="white"/>
<path d="M22.9878 27.9005C22.9878 26.6226 24.0637 25.5648 25.3633 25.5648C25.8116 25.5648 26.2145 25.6972 26.5731 25.873C28.321 26.9317 30.4728 27.6803 32.4443 27.6803C34.9083 27.6803 36.0739 26.8438 36.0739 25.5204C36.0739 24.0222 34.1921 23.4929 31.727 23.009C28.0077 22.3028 23.2125 21.4209 23.2125 16.3526C23.2125 12.7824 26.3948 9.65375 32.0856 9.65375C34.864 9.65375 37.2395 10.3579 39.2109 11.5489C39.8839 11.9005 40.3312 12.6066 40.3312 13.3997C40.3312 14.5897 39.3449 15.5585 38.135 15.5585C37.7774 15.5585 37.3291 15.4717 37.0602 15.2949C35.671 14.4574 33.9674 13.928 32.1299 13.928C30.0688 13.928 28.7239 14.6776 28.7239 15.9121C28.7239 17.2345 30.4274 17.7184 32.8472 18.2043C36.5675 18.9095 41.5411 19.8782 41.5411 25.1678C41.5411 29.0905 38.1804 32 32.1753 32C29.2619 32 26.4845 31.2949 24.1987 29.9291C23.4815 29.532 22.9878 28.739 22.9878 27.9005Z" fill="white"/>
<path d="M43.9607 28.9582V12.6946C43.9607 11.1509 45.2159 9.87298 46.8287 9.87298C48.3529 9.87298 49.6515 11.1509 49.6515 12.6946V28.9582C49.6515 30.5009 48.353 31.7798 46.7834 31.7798C45.2159 31.7798 43.9607 30.5009 43.9607 28.9582ZM43.3784 3.34889C43.3784 1.49816 44.947 0 46.7834 0C48.6663 0 50.1905 1.49816 50.1905 3.34889C50.1905 5.20065 48.6663 6.69986 46.7834 6.69986C44.947 6.69986 43.3784 5.20065 43.3784 3.34889Z" fill="white"/>
<path d="M52.251 28.6935C52.251 27.9884 52.4756 27.3722 52.8786 26.8862L62.334 15.0736H54.7614C53.3722 15.0736 52.251 13.9725 52.251 12.6491C52.251 11.2832 53.3722 10.1821 54.7614 10.1821H67.6228C69.1471 10.1821 70.3559 11.3711 70.3559 12.8693C70.3559 13.531 70.1323 14.1482 69.7736 14.5442L60.1379 26.5781H68.0711C69.415 26.5781 70.5352 27.6803 70.5352 29.0027C70.5352 30.3685 69.415 31.4707 68.0711 31.4707H55.0747C53.5062 31.4707 52.251 30.2361 52.251 28.6935Z" fill="white"/>
<path d="M77.6592 18.8206H88.3255C88.1915 16.7931 86.757 14.1038 82.9923 14.1038C79.4523 14.1038 77.9292 16.7041 77.6592 18.8206ZM82.9923 9.65274C89.4457 9.65274 93.837 14.4119 93.837 19.9662C93.837 21.8169 92.6271 22.611 90.432 22.611H77.7488C78.1085 25.3002 80.3036 27.5469 83.9786 27.5469C85.4121 27.5469 87.0259 27.1075 88.3708 26.3579C88.6831 26.1811 89.0428 26.0932 89.4457 26.0932C90.6556 26.0932 91.6862 27.1075 91.6862 28.2965C91.6862 29.135 91.1492 29.8391 90.4773 30.2362C88.3708 31.4262 85.8604 31.999 83.3499 31.999C76.7636 31.999 71.7891 27.6358 71.7891 20.8037C71.7891 14.6332 76.405 9.65274 82.9923 9.65274Z" fill="white"/>
<path d="M97.985 31.8635C99.6077 31.8635 100.923 30.5702 100.923 28.9748C100.923 27.3793 99.6077 26.086 97.985 26.086C96.3623 26.086 95.0469 27.3793 95.0469 28.9748C95.0469 30.5702 96.3623 31.8635 97.985 31.8635Z" fill="white"/>
<path d="M129.82 19.0242V29.4379C129.82 30.6859 128.768 31.7208 127.499 31.7208C126.231 31.7208 125.179 30.6859 125.179 29.4379V20.5937C125.179 18.988 124.454 17.8466 122.569 17.8466C120.937 17.8466 119.595 18.9167 118.943 19.8441V29.4379C118.943 30.6859 117.891 31.7208 116.622 31.7208C115.353 31.7208 114.301 30.6859 114.301 29.4379V20.5937C114.301 18.988 113.575 17.8466 111.691 17.8466C110.095 17.8466 108.754 18.9167 108.065 19.8793V29.4379C108.065 30.6859 107.013 31.7208 105.78 31.7208C104.474 31.7208 103.46 30.6859 103.46 29.4379V16.2781C103.46 14.994 104.474 13.96 105.744 13.96C107.049 13.96 108.101 14.994 108.101 16.2781V16.4559C108.863 15.422 111.147 13.8173 113.794 13.8173C116.368 13.8173 118 14.994 118.652 16.9553C119.667 15.3858 121.988 13.8173 124.671 13.8173C127.899 13.8173 129.82 15.4934 129.82 19.0242Z" fill="white"/>
<path d="M136.528 21.2348H145.158C145.05 19.5939 143.889 17.4185 140.843 17.4185C137.979 17.4185 136.747 19.5226 136.528 21.2348ZM140.843 13.8163C146.065 13.8163 149.618 17.6688 149.618 22.1612C149.618 23.6604 148.639 24.3025 146.862 24.3025H136.6C136.892 26.4768 138.668 28.2965 141.641 28.2965C142.801 28.2965 144.107 27.9388 145.194 27.3329C145.448 27.1912 145.739 27.1189 146.065 27.1189C147.044 27.1189 147.878 27.9387 147.878 28.9024C147.878 29.5796 147.443 30.1514 146.899 30.4719C145.194 31.4345 143.164 31.8977 141.134 31.8977C135.804 31.8977 131.779 28.3668 131.779 22.8394C131.779 17.8466 135.514 13.8163 140.843 13.8163Z" fill="white"/>
</svg>
