<svg width="24" height="36" viewBox="0 0 24 36" fill="none" xmlns="http://www.w3.org/2000/svg">
<path d="M24 12C24 17.1078 16.872 28.5983 13.6033 33.599C12.8379 34.77 11.1621 34.77 10.3967 33.599C7.12797 28.5983 0 17.1078 0 12C0 5.37258 5.37258 0 12 0C18.6274 0 24 5.37258 24 12Z" fill="#1474CC"/>
<circle cx="12" cy="12" r="6" fill="white"/>
</svg>
