<svg width="40" height="40" viewBox="0 0 40 40" fill="none" xmlns="http://www.w3.org/2000/svg">
<path d="M31.6333 24.9014L37.1929 30.4743C38.2972 31.5847 38.2642 33.4228 37.1189 34.5732L35.4973 36.1006C34.8273 36.6261 34.0546 37.0655 33.228 37.3891C32.4586 37.6886 31.7016 37.8778 30.9116 37.9724C30.5489 38.011 22.1412 38.8008 11.7082 28.3449C4.1606 20.7801 1.37948 15.2054 2.1136 9.10561C2.19934 8.34496 2.38685 7.58586 2.68802 6.79037C3.01474 5.95467 3.45379 5.1797 3.97919 4.50778L5.50327 2.88571C6.65098 1.73509 8.48564 1.7015 9.59044 2.80859L15.1501 8.38207C16.2549 9.49071 16.2232 11.3282 15.0755 12.4788L14.1513 13.4063L12.7093 14.8494C12.4507 15.1082 12.3959 15.5085 12.5727 15.8288L12.5783 15.8388C13.5609 17.6119 14.9051 20.0377 17.4553 22.5933C20.0028 25.1484 22.4237 26.4948 24.1925 27.477C24.519 27.6607 24.9275 27.6025 25.1922 27.3373L27.5461 24.9785C28.6921 23.8296 30.5259 23.796 31.6333 24.9014Z" stroke="white" stroke-width="4" stroke-linecap="round" stroke-linejoin="round"/>
</svg>
